<svg width="21" height="22" viewBox="0 0 21 22" fill="none" xmlns="http://www.w3.org/2000/svg">
<path d="M10.0667 21.4529H11.1867C11.3733 20.3062 11.88 19.0529 12.7333 17.6929C14.44 14.9996 17.88 12.3596 20.84 11.7462V10.6262C19.3733 10.3062 17.9333 9.63957 16.5467 8.6529C13.72 6.6529 11.64 3.66623 11.1867 0.9729H10.0667C9.79999 2.38623 9.18665 3.74623 8.22665 5.1329C6.33332 7.87957 3.37332 9.90623 0.359985 10.6262V11.7462C1.87999 12.0662 3.42665 12.8129 4.94665 13.9596C8.03999 16.2796 9.66665 19.1596 10.0667 21.4529Z" fill="#26334B"/>
</svg>
